{
  "tools": [
    {
      "name": "Iniscan",
      "source": "https://github.com/psecio/iniscan",
      "description": "php.ini scanner for security best practices",
      "language": "PHP",
      "price": "Free",
      "online": "False"
    },
    {
      "name": "Lynis",
      "website": "https://cisofy.com/lynis/",
      "source": "https://github.com/CISOfy/Lynis",
      "description": "Security auditing tool for Linux, macOS, and UNIX-based systems. Assists with compliance testing (HIPAA/ISO27001/PCI DSS) and system hardening. Agentless, and installation optional.",
      "language": "Shell",
      "price": "Free",
      "online": "False",
      "blackarch": "lynis"
    },
    {
      "name": "Nipper Studio",
      "website": "https://www.titania.com/nipper-studio",
      "description": "Tool that parse router, switch, firewall configuration to discover vulnerabilities",
      "price": "Paid",
      "online": "False"
    },
    {
      "name": "Nipper-ng",
      "source": "https://github.com/arpitn30/nipper-ng",
      "description": "Tool that parse router, switch, firewall configuration to discover vulnerabilities",
      "language": "Cplusplus",
      "price": "Free",
      "online": "False"
    },
    {
      "name": "YASAT",
      "source": "https://github.com/montjoie/yasat",
      "description": "TYet Another Stupid Audit Tool; check general Linux system and common softwares configuration",
      "language": "Shell",
      "price": "Free",
      "online": "False",
      "blackarch": "yasat"
    }
  ]
}
