{
  "tools": [
    {
      "name": "AWS Extender",
      "tool": "Burp Suite",
      "source": "https://github.com/VirtueSecurity/aws-extender",
      "description": "Identify and test S3 buckets, Google Storage buckets and Azure Storage containers for common misconfiguration",
      "language": "Python",
      "price": "Free",
      "online": "False"
    },
    {
      "name": "BurpBounty",
      "tool": "Burp Suite",
      "source": "https://github.com/wagiro/BurpBounty",
      "description": "Scan Check Builder in BApp Store, improve the active and passive scanner by means of personalized rules through a graphical interface",
      "language": "Java",
      "price": "Free",
      "online": "False"
    },
    {
      "name": "Copy As FFUF",
      "tool": "Burp Suite",
      "source": "https://github.com/d3k4z/burp-copy-as-ffuf",
      "description": "Copies the selected request(s) as FFUF skeleton",
      "language": "Java",
      "price": "Free",
      "online": "False"
    },
    {
      "name": "Copy As Go Request",
      "tool": "Burp Suite",
      "website": "https://portswigger.net/bappstore/6d8cc9bde0b948959aa557d9bd0f0e66",
      "source": "https://github.com/portswigger/copy-as-go-request",
      "description": "Copies the selected request(s) as Go Request invocations",
      "language": "Java",
      "price": "Free",
      "online": "False"
    },
    {
      "name": "Copy as Node Request",
      "tool": "Burp Suite",
      "website": "https://portswigger.net/bappstore/e170472f83ef4da1bca5897203b6b33d",
      "source": "https://github.com/portswigger/copy-as-node-request",
      "description": "Copies the selected request(s) as Node.JS Request invocations",
      "language": "Java",
      "price": "Free",
      "online": "False"
    },
    {
      "name": "Copy as PowerShell Requests",
      "tool": "Burp Suite",
      "website": "https://portswigger.net/bappstore/4da25d602db04f5ca7c4b668e4611cfe",
      "source": "https://github.com/portswigger/copy-as-powershell-requests",
      "description": "Copies the selected request(s) as PowerShell invocation(s)",
      "language": "Java",
      "price": "Free",
      "online": "False"
    },
    {
      "name": "Copy As Python-Requests",
      "tool": "Burp Suite",
      "website": "https://portswigger.net/bappstore/b324647b6efa4b6a8f346389730df160",
      "source": "https://github.com/portswigger/copy-as-python-requests",
      "description": "Copies selected request(s) as Python-Requests invocations",
      "language": "Java",
      "price": "Free",
      "online": "False"
    },
    {
      "name": "Copy As XMLHttpRequest",
      "tool": "Burp Suite",
      "source": "https://github.com/vulnbe/burpsuite-copy-as-xmlhttprequest",
      "description": "Copies selected request(s) as JavaScript XMLHttpRequest invocations",
      "language": "Java",
      "price": "Free",
      "online": "False"
    },
    {
      "name": "Exporter",
      "tool": "Burp Suite",
      "source": "https://github.com/artssec/burp-exporter",
      "description": "Copies selected request(s) as cURL, wget, Python Request, Perl LWP, PHP HTTP_Request2, Go, NodeJS Request, jQuery AJAX, PowerShell, HTML Forms, Ruby Net::HTTP, JavaScript XHR invocations",
      "language": "Python",
      "price": "Free",
      "online": "False"
    },
    {
      "name": "HopLa",
      "tool": "Burp Suite",
      "source": "https://github.com/synacktiv/HopLa",
      "description": "Adds autocompletion support and useful payloads in Burp Suite",
      "language": "Java",
      "price": "Free",
      "online": "False"
    },
    {
      "name": "http-screenshot-html",
      "tool": "Nmap",
      "source": "https://github.com/afxdub/http-screenshot-html",
      "description": "Nmap NSE script that scans for http server, takes a screenshot of them, and organizes the results into an HTML report",
      "language": "Lua",
      "price": "Free",
      "online": "False"
    },
    {
      "name": "Hyperpwn",
      "tool": "Hyper",
      "source": "https://github.com/bet4it/hyperpwn",
      "description": "Improve the display when debugging with GDB, needs GEF, pwndbg or peda to be loaded in GDB as a backend",
      "language": "JavaScript",
      "price": "Free",
      "online": "False"
    },
    {
      "name": "GEF",
      "tool": "GDB",
      "source": "https://github.com/hugsy/gef",
      "description": "GDB Enhanced Features, multi-architecture",
      "language": "Python",
      "price": "Free",
      "online": "False"
    },
    {
      "name": "Mona",
      "tool": "Immunity Debugger",
      "source": "https://github.com/corelan/mona",
      "description": "Set of commands for Immunity Debugger",
      "language": "Python",
      "price": "Free",
      "online": "False"
    },
    {
      "name": "PEDA",
      "tool": "GDB",
      "source": "https://github.com/longld/peda",
      "description": "Python Exploit Development Assistance, (only python2.7)",
      "language": "Python",
      "price": "Free",
      "online": "False"
    },
    {
      "name": "Pwndbg",
      "tool": "GDB",
      "source": "https://github.com/pwndbg/pwndbg",
      "description": "Enhance GDB, for exploit development and reverse engineering",
      "language": "Python",
      "price": "Free",
      "online": "False"
    },
    {
      "name": "PwnFox",
      "tool": "Burp Suite / Firefox",
      "source": "https://github.com/yeswehack/PwnFox",
      "description": "Allow to have multiple identities in the same browser using firefox containers and hightlight the profile used with different colors",
      "language": "JavaScript",
      "price": "Free",
      "online": "False"
    },
    {
      "name": "Sploitego",
      "tool": "Maltego",
      "source": "https://github.com/allfro/sploitego",
      "description": "Maltego penetration testing Transforms",
      "language": "Python",
      "price": "Free",
      "online": "False"
    },
    {
      "name": "Stepper",
      "tool": "Burp Suite",
      "source": "https://github.com/CoreyD97/Stepper",
      "description": "Evolution of Burp Suite's Repeater tool, providing the ability to create sequences of steps and define regular expressions to extract values from responses",
      "language": "Java",
      "price": "Free",
      "online": "False"
    },
    {
      "name": "ttddbg",
      "tool": "IDA",
      "source": "https://github.com/airbus-cert/ttddbg",
      "description": "Time Travel Debugging IDA plugin",
      "language": "CPlusPlus",
      "price": "Free",
      "online": "False"
    },
    {
      "name": "volatility-gpg",
      "tool": "Volatility3",
      "source": "https://github.com/kudelskisecurity/volatility-gpg",
      "description": "Volatility3 plugins that can retrieve partial and full gpg passphrases from gpg-agent's cache",
      "language": "Python",
      "price": "Free",
      "online": "False"
    },
    {
      "name": "XSSor",
      "tool": "Burp Suite",
      "source": "https://github.com/Quitten/XSSor",
      "description": "semi-automatic reflected and persistent XSS scanner",
      "language": "Python",
      "price": "Free",
      "online": "False"
    },
    {
      "name": "YesWeBurp",
      "tool": "Burp Suite",
      "source": "https://github.com/yeswehack/YesWeBurp",
      "description": "Access to all bug bounty programs directly inside Burp",
      "language": "Kotlin",
      "price": "Free",
      "online": "False"
    }
  ]
}
